// Jest Snapshot v1, https://goo.gl/fbAQLP

exports[`Carousel renders correctly 1`] = `
<div
  className="carousel slide"
  data-interval="false"
  data-ride="carousel"
  id="indicators"
>
  <ol
    className="carousel-indicators"
  >
     
    <li
      className="active"
      data-slide-to="0"
      data-target="#indicators"
    />
     
  </ol>
  <div
    className="carousel-inner"
  >
    <div
      className="carousel-item active"
    >
      <img
        alt="Amazon"
        className="d-block w-100 h-25"
        src={undefined}
      />
    </div>
  </div>
  <a
    className="carousel-control-prev"
    data-slide="prev"
    href="#indicators"
    role="button"
  >
    <span
      aria-hidden="true"
      className="carousel-control-prev-icon"
    />
    <span
      className="sr-only"
    >
      Previous
    </span>
  </a>
  <a
    className="carousel-control-next"
    data-slide="next"
    href="#indicators"
    role="button"
  >
    <span
      aria-hidden="true"
      className="carousel-control-next-icon"
    />
    <span
      className="sr-only"
    >
      Next
    </span>
  </a>
</div>
`;
